{| {{STDT|sortable}} class='table mw-collapsible mw-collapsed' style='width:90%;'
! Level !! Bonus !! Skill
|-
| 05 || BOOST_UNIVERSAL_DIRECT || 1
|-
| 05 || MAX_RAGE || 5
|-
| 05 || MONSTER_COMBAT_XP_VALUE || 1
|-
| 07 || BOOST_UNIVERSAL_DIRECT || 1
|-
| 07 || MAX_RAGE || 5
|-
| 07 || MONSTER_COMBAT_XP_VALUE || 1
|-
| 10 || BOOST_UNIVERSAL_DIRECT || 1
|-
| 10 || MAX_RAGE || 5
|-
| 10 || MONSTER_COMBAT_XP_VALUE || 2
|-
| 100 || BOOST_UNIVERSAL_DIRECT || 1
|-
| 100 || MAX_RAGE || 5
|-
| 100 || MONSTER_COMBAT_XP_VALUE || 5
|-
| 101 || BOOST_UNIVERSAL_DIRECT || 1
|-
| 101 || MAX_RAGE || 5
|-
| 101 || MONSTER_COMBAT_XP_VALUE || 5
|-
| 102 || BOOST_UNIVERSAL_DIRECT || 1
|-
| 102 || MAX_RAGE || 5
|-
| 102 || MONSTER_COMBAT_XP_VALUE || 5
|-
| 103 || BOOST_UNIVERSAL_DIRECT || 1
|-
| 103 || MAX_RAGE || 5
|-
| 103 || MONSTER_COMBAT_XP_VALUE || 5
|-
| 105 || BOOST_UNIVERSAL_DIRECT || 1
|-
| 105 || MAX_RAGE || 5
|-
| 105 || MONSTER_COMBAT_XP_VALUE || 5
|-
| 106 || BOOST_UNIVERSAL_DIRECT || 1
|-
| 106 || MAX_RAGE || 5
|-
| 106 || MONSTER_COMBAT_XP_VALUE || 5
|-
| 107 || BOOST_UNIVERSAL_DIRECT || 1
|-
| 107 || MAX_RAGE || 5
|-
| 107 || MONSTER_COMBAT_XP_VALUE || 5
|-
| 108 || BOOST_UNIVERSAL_DIRECT || 1
|-
| 108 || MAX_RAGE || 5
|-
| 108 || MONSTER_COMBAT_XP_VALUE || 5
|-
| 109 || BOOST_UNIVERSAL_DIRECT || 1
|-
| 109 || MAX_RAGE || 5
|-
| 109 || MONSTER_COMBAT_XP_VALUE || 5
|-
| 110 || BOOST_UNIVERSAL_DIRECT || 1
|-
| 110 || MAX_RAGE || 5
|-
| 110 || MONSTER_COMBAT_XP_VALUE || 5
|-
| 111 || BOOST_UNIVERSAL_DIRECT || 1
|-
| 111 || MAX_RAGE || 5
|-
| 111 || MONSTER_COMBAT_XP_VALUE || 5
|-
| 112 || BOOST_UNIVERSAL_DIRECT || 1
|-
| 112 || MAX_RAGE || 5
|-
| 112 || MONSTER_COMBAT_XP_VALUE || 5
|-
| 113 || BOOST_UNIVERSAL_DIRECT || 1
|-
| 113 || MAX_RAGE || 5
|-
| 113 || MONSTER_COMBAT_XP_VALUE || 5
|-
| 115 || BOOST_UNIVERSAL_DIRECT || 1
|-
| 115 || MAX_RAGE || 5
|-
| 115 || MONSTER_COMBAT_XP_VALUE || 5
|-
| 116 || BOOST_UNIVERSAL_DIRECT || 1
|-
| 116 || MAX_RAGE || 5
|-
| 116 || MONSTER_COMBAT_XP_VALUE || 5
|-
| 117 || BOOST_UNIVERSAL_DIRECT || 1
|-
| 117 || MAX_RAGE || 5
|-
| 117 || MONSTER_COMBAT_XP_VALUE || 5
|-
| 118 || BOOST_UNIVERSAL_DIRECT || 1
|-
| 118 || MAX_RAGE || 5
|-
| 118 || MONSTER_COMBAT_XP_VALUE || 5
|-
| 119 || BOOST_UNIVERSAL_DIRECT || 1
|-
| 119 || MAX_RAGE || 5
|-
| 119 || MONSTER_COMBAT_XP_VALUE || 5
|-
| 120 || BOOST_UNIVERSAL_DIRECT || 1
|-
| 120 || MAX_RAGE || 5
|-
| 120 || MONSTER_COMBAT_XP_VALUE || 5
|-
| 121 || BOOST_UNIVERSAL_DIRECT || 1
|-
| 121 || MAX_RAGE || 5
|-
| 121 || MONSTER_COMBAT_XP_VALUE || 5
|-
| 122 || BOOST_UNIVERSAL_DIRECT || 1
|-
| 122 || MAX_RAGE || 5
|-
| 122 || MONSTER_COMBAT_XP_VALUE || 5
|-
| 123 || BOOST_UNIVERSAL_DIRECT || 1
|-
| 123 || MAX_RAGE || 5
|-
| 123 || MONSTER_COMBAT_XP_VALUE || 5
|-
| 125 || BOOST_UNIVERSAL_DIRECT || 1
|-
| 125 || MAX_RAGE || 5
|-
| 125 || MONSTER_COMBAT_XP_VALUE || 5
|-
| 126 || BOOST_UNIVERSAL_DIRECT || 1
|-
| 126 || MAX_RAGE || 5
|-
| 126 || MONSTER_COMBAT_XP_VALUE || 5
|-
| 127 || BOOST_UNIVERSAL_DIRECT || 1
|-
| 127 || MAX_RAGE || 5
|-
| 127 || MONSTER_COMBAT_XP_VALUE || 5
|-
| 128 || BOOST_UNIVERSAL_DIRECT || 1
|-
| 128 || MAX_RAGE || 5
|-
| 128 || MONSTER_COMBAT_XP_VALUE || 5
|-
| 129 || BOOST_UNIVERSAL_DIRECT || 1
|-
| 129 || MAX_RAGE || 5
|-
| 129 || MONSTER_COMBAT_XP_VALUE || 5
|-
| 130 || BOOST_UNIVERSAL_DIRECT || 1
|-
| 130 || MAX_RAGE || 5
|-
| 130 || MONSTER_COMBAT_XP_VALUE || 5
|-
| 131 || BOOST_UNIVERSAL_DIRECT || 1
|-
| 131 || MAX_RAGE || 5
|-
| 131 || MONSTER_COMBAT_XP_VALUE || 5
|-
| 132 || BOOST_UNIVERSAL_DIRECT || 1
|-
| 132 || MAX_RAGE || 5
|-
| 132 || MONSTER_COMBAT_XP_VALUE || 5
|-
| 133 || BOOST_UNIVERSAL_DIRECT || 1
|-
| 133 || MAX_RAGE || 5
|-
| 133 || MONSTER_COMBAT_XP_VALUE || 5
|-
| 135 || BOOST_UNIVERSAL_DIRECT || 1
|-
| 135 || MAX_RAGE || 5
|-
| 135 || MONSTER_COMBAT_XP_VALUE || 5
|-
| 136 || BOOST_UNIVERSAL_DIRECT || 1
|-
| 136 || MAX_RAGE || 5
|-
| 136 || MONSTER_COMBAT_XP_VALUE || 5
|-
| 137 || BOOST_UNIVERSAL_DIRECT || 1
|-
| 137 || MAX_RAGE || 5
|-
| 137 || MONSTER_COMBAT_XP_VALUE || 5
|-
| 138 || BOOST_UNIVERSAL_DIRECT || 1
|-
| 138 || MAX_RAGE || 5
|-
| 138 || MONSTER_COMBAT_XP_VALUE || 5
|-
| 139 || BOOST_UNIVERSAL_DIRECT || 1
|-
| 139 || MAX_RAGE || 5
|-
| 139 || MONSTER_COMBAT_XP_VALUE || 5
|-
| 140 || BOOST_UNIVERSAL_DIRECT || 1
|-
| 140 || MAX_RAGE || 5
|-
| 140 || MONSTER_COMBAT_XP_VALUE || 5
|-
| 141 || BOOST_UNIVERSAL_DIRECT || 1
|-
| 141 || MAX_RAGE || 5
|-
| 141 || MONSTER_COMBAT_XP_VALUE || 5
|-
| 142 || BOOST_UNIVERSAL_DIRECT || 1
|-
| 142 || MAX_RAGE || 5
|-
| 142 || MONSTER_COMBAT_XP_VALUE || 5
|-
| 143 || BOOST_UNIVERSAL_DIRECT || 1
|-
| 143 || MAX_RAGE || 5
|-
| 143 || MONSTER_COMBAT_XP_VALUE || 5
|-
| 145 || BOOST_UNIVERSAL_DIRECT || 1
|-
| 145 || MAX_RAGE || 5
|-
| 145 || MONSTER_COMBAT_XP_VALUE || 5
|-
| 146 || BOOST_UNIVERSAL_DIRECT || 1
|-
| 146 || MAX_RAGE || 5
|-
| 146 || MONSTER_COMBAT_XP_VALUE || 5
|-
| 147 || BOOST_UNIVERSAL_DIRECT || 1
|-
| 147 || MAX_RAGE || 5
|-
| 147 || MONSTER_COMBAT_XP_VALUE || 5
|-
| 148 || BOOST_UNIVERSAL_DIRECT || 1
|-
| 148 || MAX_RAGE || 5
|-
| 148 || MONSTER_COMBAT_XP_VALUE || 5
|-
| 149 || BOOST_UNIVERSAL_DIRECT || 1
|-
| 149 || MAX_RAGE || 5
|-
| 149 || MONSTER_COMBAT_XP_VALUE || 5
|-
| 15 || BOOST_UNIVERSAL_DIRECT || 1
|-
| 15 || MAX_RAGE || 5
|-
| 15 || MONSTER_COMBAT_XP_VALUE || 2
|-
| 150 || BOOST_UNIVERSAL_DIRECT || 1
|-
| 150 || MAX_RAGE || 5
|-
| 150 || MONSTER_COMBAT_XP_VALUE || 5
|-
| 17 || BOOST_UNIVERSAL_DIRECT || 1
|-
| 17 || MAX_RAGE || 5
|-
| 17 || MONSTER_COMBAT_XP_VALUE || 2
|-
| 20 || BOOST_UNIVERSAL_DIRECT || 1
|-
| 20 || MAX_RAGE || 5
|-
| 20 || MONSTER_COMBAT_XP_VALUE || 3
|-
| 25 || BOOST_UNIVERSAL_DIRECT || 1
|-
| 25 || MAX_RAGE || 5
|-
| 25 || MONSTER_COMBAT_XP_VALUE || 3
|-
| 27 || BOOST_UNIVERSAL_DIRECT || 1
|-
| 27 || MAX_RAGE || 5
|-
| 27 || MONSTER_COMBAT_XP_VALUE || 3
|-
| 30 || BOOST_UNIVERSAL_DIRECT || 1
|-
| 30 || MAX_RAGE || 5
|-
| 30 || MONSTER_COMBAT_XP_VALUE || 4
|-
| 35 || BOOST_UNIVERSAL_DIRECT || 1
|-
| 35 || MAX_RAGE || 5
|-
| 35 || MONSTER_COMBAT_XP_VALUE || 4
|-
| 37 || BOOST_UNIVERSAL_DIRECT || 1
|-
| 37 || MAX_RAGE || 5
|-
| 37 || MONSTER_COMBAT_XP_VALUE || 4
|-
| 40 || BOOST_UNIVERSAL_DIRECT || 1
|-
| 40 || MAX_RAGE || 5
|-
| 40 || MONSTER_COMBAT_XP_VALUE || 5
|-
| 42 || BOOST_UNIVERSAL_DIRECT || 1
|-
| 42 || MAX_RAGE || 5
|-
| 42 || MONSTER_COMBAT_XP_VALUE || 5
|-
| 43 || BOOST_UNIVERSAL_DIRECT || 1
|-
| 43 || MAX_RAGE || 5
|-
| 43 || MONSTER_COMBAT_XP_VALUE || 5
|-
| 45 || BOOST_UNIVERSAL_DIRECT || 1
|-
| 45 || MAX_RAGE || 5
|-
| 45 || MONSTER_COMBAT_XP_VALUE || 5
|-
| 47 || BOOST_UNIVERSAL_DIRECT || 1
|-
| 47 || MAX_RAGE || 5
|-
| 47 || MONSTER_COMBAT_XP_VALUE || 5
|-
| 49 || BOOST_UNIVERSAL_DIRECT || 1
|-
| 49 || MAX_RAGE || 5
|-
| 49 || MONSTER_COMBAT_XP_VALUE || 5
|-
| 50 || BOOST_UNIVERSAL_DIRECT || 1
|-
| 50 || MAX_RAGE || 5
|-
| 50 || MONSTER_COMBAT_XP_VALUE || 5
|-
| 51 || BOOST_UNIVERSAL_DIRECT || 1
|-
| 51 || MAX_RAGE || 5
|-
| 51 || MONSTER_COMBAT_XP_VALUE || 5
|-
| 52 || BOOST_UNIVERSAL_DIRECT || 1
|-
| 52 || MAX_RAGE || 5
|-
| 52 || MONSTER_COMBAT_XP_VALUE || 5
|-
| 53 || BOOST_UNIVERSAL_DIRECT || 1
|-
| 53 || MAX_RAGE || 5
|-
| 53 || MONSTER_COMBAT_XP_VALUE || 5
|-
| 55 || BOOST_UNIVERSAL_DIRECT || 1
|-
| 55 || MAX_RAGE || 5
|-
| 55 || MONSTER_COMBAT_XP_VALUE || 5
|-
| 56 || BOOST_UNIVERSAL_DIRECT || 1
|-
| 56 || MAX_RAGE || 5
|-
| 56 || MONSTER_COMBAT_XP_VALUE || 5
|-
| 57 || BOOST_UNIVERSAL_DIRECT || 1
|-
| 57 || MAX_RAGE || 5
|-
| 57 || MONSTER_COMBAT_XP_VALUE || 5
|-
| 58 || BOOST_UNIVERSAL_DIRECT || 1
|-
| 58 || MAX_RAGE || 5
|-
| 58 || MONSTER_COMBAT_XP_VALUE || 5
|-
| 59 || BOOST_UNIVERSAL_DIRECT || 1
|-
| 59 || MAX_RAGE || 5
|-
| 59 || MONSTER_COMBAT_XP_VALUE || 5
|-
| 60 || BOOST_UNIVERSAL_DIRECT || 1
|-
| 60 || MAX_RAGE || 5
|-
| 60 || MONSTER_COMBAT_XP_VALUE || 5
|-
| 61 || BOOST_UNIVERSAL_DIRECT || 1
|-
| 61 || MAX_RAGE || 5
|-
| 61 || MONSTER_COMBAT_XP_VALUE || 5
|-
| 62 || BOOST_UNIVERSAL_DIRECT || 1
|-
| 62 || MAX_RAGE || 5
|-
| 62 || MONSTER_COMBAT_XP_VALUE || 5
|-
| 63 || BOOST_UNIVERSAL_DIRECT || 1
|-
| 63 || MAX_RAGE || 5
|-
| 63 || MONSTER_COMBAT_XP_VALUE || 5
|-
| 65 || BOOST_UNIVERSAL_DIRECT || 1
|-
| 65 || MAX_RAGE || 5
|-
| 65 || MONSTER_COMBAT_XP_VALUE || 5
|-
| 66 || BOOST_UNIVERSAL_DIRECT || 1
|-
| 66 || MAX_RAGE || 5
|-
| 66 || MONSTER_COMBAT_XP_VALUE || 5
|-
| 67 || BOOST_UNIVERSAL_DIRECT || 1
|-
| 67 || MAX_RAGE || 5
|-
| 67 || MONSTER_COMBAT_XP_VALUE || 5
|-
| 68 || BOOST_UNIVERSAL_DIRECT || 1
|-
| 68 || MAX_RAGE || 5
|-
| 68 || MONSTER_COMBAT_XP_VALUE || 5
|-
| 69 || BOOST_UNIVERSAL_DIRECT || 1
|-
| 69 || MAX_RAGE || 5
|-
| 69 || MONSTER_COMBAT_XP_VALUE || 5
|-
| 70 || BOOST_UNIVERSAL_DIRECT || 1
|-
| 70 || MAX_RAGE || 5
|-
| 70 || MONSTER_COMBAT_XP_VALUE || 5
|-
| 71 || BOOST_UNIVERSAL_DIRECT || 1
|-
| 71 || MAX_RAGE || 5
|-
| 71 || MONSTER_COMBAT_XP_VALUE || 5
|-
| 72 || BOOST_UNIVERSAL_DIRECT || 1
|-
| 72 || MAX_RAGE || 5
|-
| 72 || MONSTER_COMBAT_XP_VALUE || 5
|-
| 73 || BOOST_UNIVERSAL_DIRECT || 1
|-
| 73 || MAX_RAGE || 5
|-
| 73 || MONSTER_COMBAT_XP_VALUE || 5
|-
| 75 || BOOST_UNIVERSAL_DIRECT || 1
|-
| 75 || MAX_RAGE || 5
|-
| 75 || MONSTER_COMBAT_XP_VALUE || 5
|-
| 76 || BOOST_UNIVERSAL_DIRECT || 1
|-
| 76 || MAX_RAGE || 5
|-
| 76 || MONSTER_COMBAT_XP_VALUE || 5
|-
| 77 || BOOST_UNIVERSAL_DIRECT || 1
|-
| 77 || MAX_RAGE || 5
|-
| 77 || MONSTER_COMBAT_XP_VALUE || 5
|-
| 78 || BOOST_UNIVERSAL_DIRECT || 1
|-
| 78 || MAX_RAGE || 5
|-
| 78 || MONSTER_COMBAT_XP_VALUE || 5
|-
| 79 || BOOST_UNIVERSAL_DIRECT || 1
|-
| 79 || MAX_RAGE || 5
|-
| 79 || MONSTER_COMBAT_XP_VALUE || 5
|-
| 80 || BOOST_UNIVERSAL_DIRECT || 1
|-
| 80 || MAX_RAGE || 5
|-
| 80 || MONSTER_COMBAT_XP_VALUE || 5
|-
| 81 || BOOST_UNIVERSAL_DIRECT || 1
|-
| 81 || MAX_RAGE || 5
|-
| 81 || MONSTER_COMBAT_XP_VALUE || 5
|-
| 82 || BOOST_UNIVERSAL_DIRECT || 1
|-
| 82 || MAX_RAGE || 5
|-
| 82 || MONSTER_COMBAT_XP_VALUE || 5
|-
| 83 || BOOST_UNIVERSAL_DIRECT || 1
|-
| 83 || MAX_RAGE || 5
|-
| 83 || MONSTER_COMBAT_XP_VALUE || 5
|-
| 85 || BOOST_UNIVERSAL_DIRECT || 1
|-
| 85 || MAX_RAGE || 5
|-
| 85 || MONSTER_COMBAT_XP_VALUE || 5
|-
| 86 || BOOST_UNIVERSAL_DIRECT || 1
|-
| 86 || MAX_RAGE || 5
|-
| 86 || MONSTER_COMBAT_XP_VALUE || 5
|-
| 87 || BOOST_UNIVERSAL_DIRECT || 1
|-
| 87 || MAX_RAGE || 5
|-
| 87 || MONSTER_COMBAT_XP_VALUE || 5
|-
| 88 || BOOST_UNIVERSAL_DIRECT || 1
|-
| 88 || MAX_RAGE || 5
|-
| 88 || MONSTER_COMBAT_XP_VALUE || 5
|-
| 89 || BOOST_UNIVERSAL_DIRECT || 1
|-
| 89 || MAX_RAGE || 5
|-
| 89 || MONSTER_COMBAT_XP_VALUE || 5
|-
| 90 || BOOST_UNIVERSAL_DIRECT || 1
|-
| 90 || MAX_RAGE || 5
|-
| 90 || MONSTER_COMBAT_XP_VALUE || 5
|-
| 91 || BOOST_UNIVERSAL_DIRECT || 1
|-
| 91 || MAX_RAGE || 5
|-
| 91 || MONSTER_COMBAT_XP_VALUE || 5
|-
| 92 || BOOST_UNIVERSAL_DIRECT || 1
|-
| 92 || MAX_RAGE || 5
|-
| 92 || MONSTER_COMBAT_XP_VALUE || 5
|-
| 93 || BOOST_UNIVERSAL_DIRECT || 1
|-
| 93 || MAX_RAGE || 5
|-
| 93 || MONSTER_COMBAT_XP_VALUE || 5
|-
| 95 || BOOST_UNIVERSAL_DIRECT || 1
|-
| 95 || MAX_RAGE || 5
|-
| 95 || MONSTER_COMBAT_XP_VALUE || 5
|-
| 96 || BOOST_UNIVERSAL_DIRECT || 1
|-
| 96 || MAX_RAGE || 5
|-
| 96 || MONSTER_COMBAT_XP_VALUE || 5
|-
| 97 || BOOST_UNIVERSAL_DIRECT || 1
|-
| 97 || MAX_RAGE || 5
|-
| 97 || MONSTER_COMBAT_XP_VALUE || 5
|-
| 98 || BOOST_UNIVERSAL_DIRECT || 1
|-
| 98 || MAX_RAGE || 5
|-
| 98 || MONSTER_COMBAT_XP_VALUE || 5
|-
| 99 || BOOST_UNIVERSAL_DIRECT || 1
|-
| 99 || MAX_RAGE || 5
|-
| 99 || MONSTER_COMBAT_XP_VALUE || 5
|}
