{| {{STDT|sortable}} class='table mw-collapsible mw-collapsed' style='width:90%;'
! Level !! Bonus !! Skill
|-
| 01 || BOOST_UNIVERSAL_DIRECT || 1
|-
| 01 || MAX_ARMOR || 1
|-
| 01 || MAX_HEALTH || 20
|-
| 01 || MAX_RAGE || 5
|-
| 01 || MONSTER_COMBAT_XP_VALUE || 1
|-
| 02 || MAX_ARMOR || 1
|-
| 02 || MAX_HEALTH || 20
|-
| 02 || MAX_RAGE || 5
|-
| 02 || MONSTER_COMBAT_XP_VALUE || 2
|-
| 03 || MAX_ARMOR || 1
|-
| 03 || MAX_HEALTH || 20
|-
| 03 || MAX_RAGE || 5
|-
| 03 || MONSTER_COMBAT_XP_VALUE || 1
|-
| 04 || MAX_ARMOR || 1
|-
| 04 || MAX_HEALTH || 20
|-
| 04 || MAX_RAGE || 5
|-
| 04 || MONSTER_COMBAT_XP_VALUE || 2
|-
| 05 || MAX_ARMOR || 1
|-
| 05 || MAX_HEALTH || 20
|-
| 05 || MAX_RAGE || 5
|-
| 05 || MONSTER_COMBAT_XP_VALUE || 1
|-
| 06 || BOOST_UNIVERSAL_DIRECT || 1
|-
| 06 || MAX_ARMOR || 1
|-
| 06 || MAX_HEALTH || 22
|-
| 06 || MAX_RAGE || 5
|-
| 06 || MONSTER_COMBAT_XP_VALUE || 2
|-
| 07 || MAX_ARMOR || 1
|-
| 07 || MAX_HEALTH || 22
|-
| 07 || MAX_RAGE || 5
|-
| 07 || MONSTER_COMBAT_XP_VALUE || 1
|-
| 08 || BOOST_UNIVERSAL_DIRECT || 1
|-
| 08 || MAX_ARMOR || 1
|-
| 08 || MAX_HEALTH || 22
|-
| 08 || MAX_RAGE || 5
|-
| 08 || MONSTER_COMBAT_XP_VALUE || 2
|-
| 09 || MAX_ARMOR || 1
|-
| 09 || MAX_HEALTH || 24
|-
| 09 || MAX_RAGE || 6
|-
| 09 || MONSTER_COMBAT_XP_VALUE || 1
|-
| 10 || MAX_ARMOR || 1
|-
| 10 || MAX_HEALTH || 24
|-
| 10 || MAX_RAGE || 6
|-
| 10 || MONSTER_COMBAT_XP_VALUE || 2
|-
| 100 || BOOST_UNIVERSAL_DIRECT || 4
|-
| 100 || MAX_ARMOR || 3
|-
| 100 || MAX_HEALTH || 286
|-
| 100 || MAX_RAGE || 10
|-
| 100 || MONSTER_COMBAT_XP_VALUE || 2
|-
| 11 || BOOST_UNIVERSAL_DIRECT || 1
|-
| 11 || MAX_ARMOR || 1
|-
| 11 || MAX_HEALTH || 24
|-
| 11 || MAX_RAGE || 6
|-
| 11 || MONSTER_COMBAT_XP_VALUE || 1
|-
| 12 || MAX_ARMOR || 1
|-
| 12 || MAX_HEALTH || 26
|-
| 12 || MAX_RAGE || 6
|-
| 12 || MONSTER_COMBAT_XP_VALUE || 2
|-
| 13 || MAX_ARMOR || 1
|-
| 13 || MAX_HEALTH || 26
|-
| 13 || MAX_RAGE || 6
|-
| 13 || MONSTER_COMBAT_XP_VALUE || 1
|-
| 14 || MAX_ARMOR || 1
|-
| 14 || MAX_HEALTH || 26
|-
| 14 || MAX_RAGE || 6
|-
| 14 || MONSTER_COMBAT_XP_VALUE || 2
|-
| 15 || MAX_ARMOR || 1
|-
| 15 || MAX_HEALTH || 28
|-
| 15 || MAX_RAGE || 6
|-
| 15 || MONSTER_COMBAT_XP_VALUE || 1
|-
| 16 || BOOST_UNIVERSAL_DIRECT || 1
|-
| 16 || MAX_ARMOR || 1
|-
| 16 || MAX_HEALTH || 28
|-
| 16 || MAX_RAGE || 6
|-
| 16 || MONSTER_COMBAT_XP_VALUE || 2
|-
| 17 || MAX_ARMOR || 1
|-
| 17 || MAX_HEALTH || 28
|-
| 17 || MAX_RAGE || 6
|-
| 17 || MONSTER_COMBAT_XP_VALUE || 1
|-
| 18 || BOOST_UNIVERSAL_DIRECT || 1
|-
| 18 || MAX_ARMOR || 1
|-
| 18 || MAX_HEALTH || 30
|-
| 18 || MAX_RAGE || 6
|-
| 18 || MONSTER_COMBAT_XP_VALUE || 2
|-
| 19 || MAX_ARMOR || 1
|-
| 19 || MAX_HEALTH || 30
|-
| 19 || MAX_RAGE || 6
|-
| 19 || MONSTER_COMBAT_XP_VALUE || 1
|-
| 20 || MAX_ARMOR || 1
|-
| 20 || MAX_HEALTH || 30
|-
| 20 || MAX_RAGE || 6
|-
| 20 || MONSTER_COMBAT_XP_VALUE || 2
|-
| 21 || BOOST_UNIVERSAL_DIRECT || 1
|-
| 21 || MAX_ARMOR || 1
|-
| 21 || MAX_HEALTH || 32
|-
| 21 || MAX_RAGE || 7
|-
| 21 || MONSTER_COMBAT_XP_VALUE || 1
|-
| 22 || MAX_ARMOR || 1
|-
| 22 || MAX_HEALTH || 32
|-
| 22 || MAX_RAGE || 7
|-
| 22 || MONSTER_COMBAT_XP_VALUE || 2
|-
| 23 || BOOST_UNIVERSAL_DIRECT || 1
|-
| 23 || MAX_ARMOR || 1
|-
| 23 || MAX_HEALTH || 32
|-
| 23 || MAX_RAGE || 7
|-
| 23 || MONSTER_COMBAT_XP_VALUE || 1
|-
| 24 || BOOST_UNIVERSAL_DIRECT || 1
|-
| 24 || MAX_ARMOR || 1
|-
| 24 || MAX_HEALTH || 34
|-
| 24 || MAX_RAGE || 7
|-
| 24 || MONSTER_COMBAT_XP_VALUE || 2
|-
| 25 || BOOST_UNIVERSAL_DIRECT || 1
|-
| 25 || MAX_ARMOR || 1
|-
| 25 || MAX_HEALTH || 34
|-
| 25 || MAX_RAGE || 7
|-
| 25 || MONSTER_COMBAT_XP_VALUE || 1
|-
| 26 || BOOST_UNIVERSAL_DIRECT || 1
|-
| 26 || MAX_ARMOR || 1
|-
| 26 || MAX_HEALTH || 34
|-
| 26 || MAX_RAGE || 7
|-
| 26 || MONSTER_COMBAT_XP_VALUE || 2
|-
| 27 || BOOST_UNIVERSAL_DIRECT || 1
|-
| 27 || MAX_ARMOR || 1
|-
| 27 || MAX_HEALTH || 36
|-
| 27 || MAX_RAGE || 7
|-
| 27 || MONSTER_COMBAT_XP_VALUE || 1
|-
| 28 || BOOST_UNIVERSAL_DIRECT || 1
|-
| 28 || MAX_ARMOR || 1
|-
| 28 || MAX_HEALTH || 36
|-
| 28 || MAX_RAGE || 7
|-
| 28 || MONSTER_COMBAT_XP_VALUE || 2
|-
| 29 || BOOST_UNIVERSAL_DIRECT || 1
|-
| 29 || MAX_ARMOR || 1
|-
| 29 || MAX_HEALTH || 36
|-
| 29 || MAX_RAGE || 7
|-
| 29 || MONSTER_COMBAT_XP_VALUE || 1
|-
| 30 || BOOST_UNIVERSAL_DIRECT || 1
|-
| 30 || MAX_ARMOR || 1
|-
| 30 || MAX_HEALTH || 38
|-
| 30 || MAX_RAGE || 7
|-
| 30 || MONSTER_COMBAT_XP_VALUE || 2
|-
| 31 || BOOST_UNIVERSAL_DIRECT || 1
|-
| 31 || MAX_ARMOR || 1
|-
| 31 || MAX_HEALTH || 38
|-
| 31 || MAX_RAGE || 7
|-
| 31 || MONSTER_COMBAT_XP_VALUE || 1
|-
| 32 || BOOST_UNIVERSAL_DIRECT || 1
|-
| 32 || MAX_ARMOR || 1
|-
| 32 || MAX_HEALTH || 38
|-
| 32 || MAX_RAGE || 7
|-
| 32 || MONSTER_COMBAT_XP_VALUE || 2
|-
| 33 || BOOST_UNIVERSAL_DIRECT || 1
|-
| 33 || MAX_ARMOR || 1
|-
| 33 || MAX_HEALTH || 40
|-
| 33 || MAX_RAGE || 8
|-
| 33 || MONSTER_COMBAT_XP_VALUE || 1
|-
| 34 || BOOST_UNIVERSAL_DIRECT || 1
|-
| 34 || MAX_ARMOR || 1
|-
| 34 || MAX_HEALTH || 42
|-
| 34 || MAX_RAGE || 8
|-
| 34 || MONSTER_COMBAT_XP_VALUE || 2
|-
| 35 || BOOST_UNIVERSAL_DIRECT || 1
|-
| 35 || MAX_ARMOR || 1
|-
| 35 || MAX_HEALTH || 44
|-
| 35 || MAX_RAGE || 8
|-
| 35 || MONSTER_COMBAT_XP_VALUE || 1
|-
| 36 || BOOST_UNIVERSAL_DIRECT || 1
|-
| 36 || MAX_ARMOR || 1
|-
| 36 || MAX_HEALTH || 46
|-
| 36 || MAX_RAGE || 8
|-
| 36 || MONSTER_COMBAT_XP_VALUE || 2
|-
| 37 || BOOST_UNIVERSAL_DIRECT || 1
|-
| 37 || MAX_ARMOR || 1
|-
| 37 || MAX_HEALTH || 48
|-
| 37 || MAX_RAGE || 9
|-
| 37 || MONSTER_COMBAT_XP_VALUE || 1
|-
| 38 || BOOST_UNIVERSAL_DIRECT || 1
|-
| 38 || MAX_ARMOR || 1
|-
| 38 || MAX_HEALTH || 50
|-
| 38 || MAX_RAGE || 9
|-
| 38 || MONSTER_COMBAT_XP_VALUE || 2
|-
| 39 || BOOST_UNIVERSAL_DIRECT || 2
|-
| 39 || MAX_ARMOR || 1
|-
| 39 || MAX_HEALTH || 52
|-
| 39 || MAX_RAGE || 9
|-
| 39 || MONSTER_COMBAT_XP_VALUE || 1
|-
| 40 || BOOST_UNIVERSAL_DIRECT || 2
|-
| 40 || MAX_ARMOR || 1
|-
| 40 || MAX_HEALTH || 54
|-
| 40 || MAX_RAGE || 9
|-
| 40 || MONSTER_COMBAT_XP_VALUE || 2
|-
| 41 || BOOST_UNIVERSAL_DIRECT || 2
|-
| 41 || MAX_ARMOR || 2
|-
| 41 || MAX_HEALTH || 56
|-
| 41 || MAX_RAGE || 10
|-
| 41 || MONSTER_COMBAT_XP_VALUE || 1
|-
| 42 || BOOST_UNIVERSAL_DIRECT || 2
|-
| 42 || MAX_ARMOR || 2
|-
| 42 || MAX_HEALTH || 58
|-
| 42 || MAX_RAGE || 10
|-
| 42 || MONSTER_COMBAT_XP_VALUE || 2
|-
| 43 || BOOST_UNIVERSAL_DIRECT || 2
|-
| 43 || MAX_ARMOR || 2
|-
| 43 || MAX_HEALTH || 60
|-
| 43 || MAX_RAGE || 10
|-
| 43 || MONSTER_COMBAT_XP_VALUE || 1
|-
| 44 || BOOST_UNIVERSAL_DIRECT || 2
|-
| 44 || MAX_ARMOR || 2
|-
| 44 || MAX_HEALTH || 62
|-
| 44 || MAX_RAGE || 10
|-
| 44 || MONSTER_COMBAT_XP_VALUE || 2
|-
| 45 || BOOST_UNIVERSAL_DIRECT || 2
|-
| 45 || MAX_ARMOR || 2
|-
| 45 || MAX_HEALTH || 66
|-
| 45 || MAX_RAGE || 10
|-
| 45 || MONSTER_COMBAT_XP_VALUE || 1
|-
| 46 || BOOST_UNIVERSAL_DIRECT || 2
|-
| 46 || MAX_ARMOR || 2
|-
| 46 || MAX_HEALTH || 70
|-
| 46 || MAX_RAGE || 10
|-
| 46 || MONSTER_COMBAT_XP_VALUE || 2
|-
| 47 || BOOST_UNIVERSAL_DIRECT || 2
|-
| 47 || MAX_ARMOR || 2
|-
| 47 || MAX_HEALTH || 74
|-
| 47 || MAX_RAGE || 10
|-
| 47 || MONSTER_COMBAT_XP_VALUE || 1
|-
| 48 || BOOST_UNIVERSAL_DIRECT || 2
|-
| 48 || MAX_ARMOR || 2
|-
| 48 || MAX_HEALTH || 78
|-
| 48 || MAX_RAGE || 10
|-
| 48 || MONSTER_COMBAT_XP_VALUE || 2
|-
| 49 || BOOST_UNIVERSAL_DIRECT || 2
|-
| 49 || MAX_ARMOR || 2
|-
| 49 || MAX_HEALTH || 82
|-
| 49 || MAX_RAGE || 10
|-
| 49 || MONSTER_COMBAT_XP_VALUE || 1
|-
| 50 || BOOST_UNIVERSAL_DIRECT || 2
|-
| 50 || MAX_ARMOR || 2
|-
| 50 || MAX_HEALTH || 86
|-
| 50 || MAX_RAGE || 10
|-
| 50 || MONSTER_COMBAT_XP_VALUE || 2
|-
| 51 || BOOST_UNIVERSAL_DIRECT || 3
|-
| 51 || MAX_ARMOR || 3
|-
| 51 || MAX_HEALTH || 90
|-
| 51 || MAX_RAGE || 10
|-
| 51 || MONSTER_COMBAT_XP_VALUE || 2
|-
| 52 || BOOST_UNIVERSAL_DIRECT || 3
|-
| 52 || MAX_ARMOR || 3
|-
| 52 || MAX_HEALTH || 94
|-
| 52 || MAX_RAGE || 10
|-
| 52 || MONSTER_COMBAT_XP_VALUE || 2
|-
| 53 || BOOST_UNIVERSAL_DIRECT || 3
|-
| 53 || MAX_ARMOR || 3
|-
| 53 || MAX_HEALTH || 98
|-
| 53 || MAX_RAGE || 10
|-
| 53 || MONSTER_COMBAT_XP_VALUE || 2
|-
| 54 || BOOST_UNIVERSAL_DIRECT || 3
|-
| 54 || MAX_ARMOR || 3
|-
| 54 || MAX_HEALTH || 102
|-
| 54 || MAX_RAGE || 10
|-
| 54 || MONSTER_COMBAT_XP_VALUE || 2
|-
| 55 || BOOST_UNIVERSAL_DIRECT || 3
|-
| 55 || MAX_ARMOR || 3
|-
| 55 || MAX_HEALTH || 106
|-
| 55 || MAX_RAGE || 10
|-
| 55 || MONSTER_COMBAT_XP_VALUE || 2
|-
| 56 || BOOST_UNIVERSAL_DIRECT || 3
|-
| 56 || MAX_ARMOR || 3
|-
| 56 || MAX_HEALTH || 110
|-
| 56 || MAX_RAGE || 10
|-
| 56 || MONSTER_COMBAT_XP_VALUE || 2
|-
| 57 || BOOST_UNIVERSAL_DIRECT || 3
|-
| 57 || MAX_ARMOR || 3
|-
| 57 || MAX_HEALTH || 114
|-
| 57 || MAX_RAGE || 10
|-
| 57 || MONSTER_COMBAT_XP_VALUE || 2
|-
| 58 || BOOST_UNIVERSAL_DIRECT || 3
|-
| 58 || MAX_ARMOR || 3
|-
| 58 || MAX_HEALTH || 118
|-
| 58 || MAX_RAGE || 10
|-
| 58 || MONSTER_COMBAT_XP_VALUE || 2
|-
| 59 || BOOST_UNIVERSAL_DIRECT || 3
|-
| 59 || MAX_ARMOR || 3
|-
| 59 || MAX_HEALTH || 122
|-
| 59 || MAX_RAGE || 10
|-
| 59 || MONSTER_COMBAT_XP_VALUE || 2
|-
| 60 || BOOST_UNIVERSAL_DIRECT || 3
|-
| 60 || MAX_ARMOR || 3
|-
| 60 || MAX_HEALTH || 126
|-
| 60 || MAX_RAGE || 10
|-
| 60 || MONSTER_COMBAT_XP_VALUE || 2
|-
| 61 || BOOST_UNIVERSAL_DIRECT || 4
|-
| 61 || MAX_ARMOR || 3
|-
| 61 || MAX_HEALTH || 130
|-
| 61 || MAX_RAGE || 10
|-
| 61 || MONSTER_COMBAT_XP_VALUE || 2
|-
| 62 || BOOST_UNIVERSAL_DIRECT || 4
|-
| 62 || MAX_ARMOR || 3
|-
| 62 || MAX_HEALTH || 134
|-
| 62 || MAX_RAGE || 10
|-
| 62 || MONSTER_COMBAT_XP_VALUE || 2
|-
| 63 || BOOST_UNIVERSAL_DIRECT || 4
|-
| 63 || MAX_ARMOR || 3
|-
| 63 || MAX_HEALTH || 138
|-
| 63 || MAX_RAGE || 10
|-
| 63 || MONSTER_COMBAT_XP_VALUE || 2
|-
| 64 || BOOST_UNIVERSAL_DIRECT || 4
|-
| 64 || MAX_ARMOR || 3
|-
| 64 || MAX_HEALTH || 142
|-
| 64 || MAX_RAGE || 10
|-
| 64 || MONSTER_COMBAT_XP_VALUE || 2
|-
| 65 || BOOST_UNIVERSAL_DIRECT || 4
|-
| 65 || MAX_ARMOR || 3
|-
| 65 || MAX_HEALTH || 146
|-
| 65 || MAX_RAGE || 10
|-
| 65 || MONSTER_COMBAT_XP_VALUE || 2
|-
| 66 || BOOST_UNIVERSAL_DIRECT || 4
|-
| 66 || MAX_ARMOR || 3
|-
| 66 || MAX_HEALTH || 150
|-
| 66 || MAX_RAGE || 10
|-
| 66 || MONSTER_COMBAT_XP_VALUE || 2
|-
| 67 || BOOST_UNIVERSAL_DIRECT || 4
|-
| 67 || MAX_ARMOR || 3
|-
| 67 || MAX_HEALTH || 154
|-
| 67 || MAX_RAGE || 10
|-
| 67 || MONSTER_COMBAT_XP_VALUE || 2
|-
| 68 || BOOST_UNIVERSAL_DIRECT || 4
|-
| 68 || MAX_ARMOR || 3
|-
| 68 || MAX_HEALTH || 158
|-
| 68 || MAX_RAGE || 10
|-
| 68 || MONSTER_COMBAT_XP_VALUE || 2
|-
| 69 || BOOST_UNIVERSAL_DIRECT || 4
|-
| 69 || MAX_ARMOR || 3
|-
| 69 || MAX_HEALTH || 162
|-
| 69 || MAX_RAGE || 10
|-
| 69 || MONSTER_COMBAT_XP_VALUE || 2
|-
| 70 || BOOST_UNIVERSAL_DIRECT || 4
|-
| 70 || MAX_ARMOR || 3
|-
| 70 || MAX_HEALTH || 166
|-
| 70 || MAX_RAGE || 10
|-
| 70 || MONSTER_COMBAT_XP_VALUE || 2
|-
| 71 || BOOST_UNIVERSAL_DIRECT || 4
|-
| 71 || MAX_ARMOR || 3
|-
| 71 || MAX_HEALTH || 170
|-
| 71 || MAX_RAGE || 10
|-
| 71 || MONSTER_COMBAT_XP_VALUE || 2
|-
| 72 || BOOST_UNIVERSAL_DIRECT || 4
|-
| 72 || MAX_ARMOR || 3
|-
| 72 || MAX_HEALTH || 174
|-
| 72 || MAX_RAGE || 10
|-
| 72 || MONSTER_COMBAT_XP_VALUE || 2
|-
| 73 || BOOST_UNIVERSAL_DIRECT || 4
|-
| 73 || MAX_ARMOR || 3
|-
| 73 || MAX_HEALTH || 178
|-
| 73 || MAX_RAGE || 10
|-
| 73 || MONSTER_COMBAT_XP_VALUE || 2
|-
| 74 || BOOST_UNIVERSAL_DIRECT || 4
|-
| 74 || MAX_ARMOR || 3
|-
| 74 || MAX_HEALTH || 182
|-
| 74 || MAX_RAGE || 10
|-
| 74 || MONSTER_COMBAT_XP_VALUE || 2
|-
| 75 || BOOST_UNIVERSAL_DIRECT || 4
|-
| 75 || MAX_ARMOR || 3
|-
| 75 || MAX_HEALTH || 186
|-
| 75 || MAX_RAGE || 10
|-
| 75 || MONSTER_COMBAT_XP_VALUE || 2
|-
| 76 || BOOST_UNIVERSAL_DIRECT || 4
|-
| 76 || MAX_ARMOR || 3
|-
| 76 || MAX_HEALTH || 190
|-
| 76 || MAX_RAGE || 10
|-
| 76 || MONSTER_COMBAT_XP_VALUE || 2
|-
| 77 || BOOST_UNIVERSAL_DIRECT || 4
|-
| 77 || MAX_ARMOR || 3
|-
| 77 || MAX_HEALTH || 194
|-
| 77 || MAX_RAGE || 10
|-
| 77 || MONSTER_COMBAT_XP_VALUE || 2
|-
| 78 || BOOST_UNIVERSAL_DIRECT || 4
|-
| 78 || MAX_ARMOR || 3
|-
| 78 || MAX_HEALTH || 198
|-
| 78 || MAX_RAGE || 10
|-
| 78 || MONSTER_COMBAT_XP_VALUE || 2
|-
| 79 || BOOST_UNIVERSAL_DIRECT || 4
|-
| 79 || MAX_ARMOR || 3
|-
| 79 || MAX_HEALTH || 202
|-
| 79 || MAX_RAGE || 10
|-
| 79 || MONSTER_COMBAT_XP_VALUE || 2
|-
| 80 || BOOST_UNIVERSAL_DIRECT || 4
|-
| 80 || MAX_ARMOR || 3
|-
| 80 || MAX_HEALTH || 206
|-
| 80 || MAX_RAGE || 10
|-
| 80 || MONSTER_COMBAT_XP_VALUE || 2
|-
| 81 || BOOST_UNIVERSAL_DIRECT || 4
|-
| 81 || MAX_ARMOR || 3
|-
| 81 || MAX_HEALTH || 210
|-
| 81 || MAX_RAGE || 10
|-
| 81 || MONSTER_COMBAT_XP_VALUE || 2
|-
| 82 || BOOST_UNIVERSAL_DIRECT || 4
|-
| 82 || MAX_ARMOR || 3
|-
| 82 || MAX_HEALTH || 214
|-
| 82 || MAX_RAGE || 10
|-
| 82 || MONSTER_COMBAT_XP_VALUE || 2
|-
| 83 || BOOST_UNIVERSAL_DIRECT || 4
|-
| 83 || MAX_ARMOR || 3
|-
| 83 || MAX_HEALTH || 218
|-
| 83 || MAX_RAGE || 10
|-
| 83 || MONSTER_COMBAT_XP_VALUE || 2
|-
| 84 || BOOST_UNIVERSAL_DIRECT || 4
|-
| 84 || MAX_ARMOR || 3
|-
| 84 || MAX_HEALTH || 222
|-
| 84 || MAX_RAGE || 10
|-
| 84 || MONSTER_COMBAT_XP_VALUE || 2
|-
| 85 || BOOST_UNIVERSAL_DIRECT || 4
|-
| 85 || MAX_ARMOR || 3
|-
| 85 || MAX_HEALTH || 226
|-
| 85 || MAX_RAGE || 10
|-
| 85 || MONSTER_COMBAT_XP_VALUE || 2
|-
| 86 || BOOST_UNIVERSAL_DIRECT || 4
|-
| 86 || MAX_ARMOR || 3
|-
| 86 || MAX_HEALTH || 230
|-
| 86 || MAX_RAGE || 10
|-
| 86 || MONSTER_COMBAT_XP_VALUE || 2
|-
| 87 || BOOST_UNIVERSAL_DIRECT || 4
|-
| 87 || MAX_ARMOR || 3
|-
| 87 || MAX_HEALTH || 234
|-
| 87 || MAX_RAGE || 10
|-
| 87 || MONSTER_COMBAT_XP_VALUE || 2
|-
| 88 || BOOST_UNIVERSAL_DIRECT || 4
|-
| 88 || MAX_ARMOR || 3
|-
| 88 || MAX_HEALTH || 238
|-
| 88 || MAX_RAGE || 10
|-
| 88 || MONSTER_COMBAT_XP_VALUE || 2
|-
| 89 || BOOST_UNIVERSAL_DIRECT || 4
|-
| 89 || MAX_ARMOR || 3
|-
| 89 || MAX_HEALTH || 242
|-
| 89 || MAX_RAGE || 10
|-
| 89 || MONSTER_COMBAT_XP_VALUE || 2
|-
| 90 || BOOST_UNIVERSAL_DIRECT || 4
|-
| 90 || MAX_ARMOR || 3
|-
| 90 || MAX_HEALTH || 246
|-
| 90 || MAX_RAGE || 10
|-
| 90 || MONSTER_COMBAT_XP_VALUE || 2
|-
| 91 || BOOST_UNIVERSAL_DIRECT || 4
|-
| 91 || MAX_ARMOR || 3
|-
| 91 || MAX_HEALTH || 250
|-
| 91 || MAX_RAGE || 10
|-
| 91 || MONSTER_COMBAT_XP_VALUE || 2
|-
| 92 || BOOST_UNIVERSAL_DIRECT || 4
|-
| 92 || MAX_ARMOR || 3
|-
| 92 || MAX_HEALTH || 254
|-
| 92 || MAX_RAGE || 10
|-
| 92 || MONSTER_COMBAT_XP_VALUE || 2
|-
| 93 || BOOST_UNIVERSAL_DIRECT || 4
|-
| 93 || MAX_ARMOR || 3
|-
| 93 || MAX_HEALTH || 258
|-
| 93 || MAX_RAGE || 10
|-
| 93 || MONSTER_COMBAT_XP_VALUE || 2
|-
| 94 || BOOST_UNIVERSAL_DIRECT || 4
|-
| 94 || MAX_ARMOR || 3
|-
| 94 || MAX_HEALTH || 262
|-
| 94 || MAX_RAGE || 10
|-
| 94 || MONSTER_COMBAT_XP_VALUE || 2
|-
| 95 || BOOST_UNIVERSAL_DIRECT || 4
|-
| 95 || MAX_ARMOR || 3
|-
| 95 || MAX_HEALTH || 266
|-
| 95 || MAX_RAGE || 10
|-
| 95 || MONSTER_COMBAT_XP_VALUE || 2
|-
| 96 || BOOST_UNIVERSAL_DIRECT || 4
|-
| 96 || MAX_ARMOR || 3
|-
| 96 || MAX_HEALTH || 270
|-
| 96 || MAX_RAGE || 10
|-
| 96 || MONSTER_COMBAT_XP_VALUE || 2
|-
| 97 || BOOST_UNIVERSAL_DIRECT || 4
|-
| 97 || MAX_ARMOR || 3
|-
| 97 || MAX_HEALTH || 274
|-
| 97 || MAX_RAGE || 10
|-
| 97 || MONSTER_COMBAT_XP_VALUE || 2
|-
| 98 || BOOST_UNIVERSAL_DIRECT || 4
|-
| 98 || MAX_ARMOR || 3
|-
| 98 || MAX_HEALTH || 278
|-
| 98 || MAX_RAGE || 10
|-
| 98 || MONSTER_COMBAT_XP_VALUE || 2
|-
| 99 || BOOST_UNIVERSAL_DIRECT || 4
|-
| 99 || MAX_ARMOR || 3
|-
| 99 || MAX_HEALTH || 282
|-
| 99 || MAX_RAGE || 10
|-
| 99 || MONSTER_COMBAT_XP_VALUE || 2
|}
