{| {{STDT|sortable}} class='table mw-collapsible mw-collapsed' style='width:90%;'
! Level !! Bonus !! Skill
|-
| 01 || MONSTER_COMBAT_XP_VALUE || 1
|-
| 02 || MONSTER_COMBAT_XP_VALUE || 2
|-
| 03 || MONSTER_COMBAT_XP_VALUE || 1
|-
| 04 || MONSTER_COMBAT_XP_VALUE || 2
|-
| 05 || MONSTER_COMBAT_XP_VALUE || 1
|-
| 06 || MONSTER_COMBAT_XP_VALUE || 2
|-
| 07 || MONSTER_COMBAT_XP_VALUE || 1
|-
| 08 || MONSTER_COMBAT_XP_VALUE || 2
|-
| 09 || MONSTER_COMBAT_XP_VALUE || 1
|-
| 10 || MONSTER_COMBAT_XP_VALUE || 2
|-
| 100 || MONSTER_COMBAT_XP_VALUE || 3
|-
| 101 || MONSTER_COMBAT_XP_VALUE || 3
|-
| 102 || MONSTER_COMBAT_XP_VALUE || 3
|-
| 103 || MONSTER_COMBAT_XP_VALUE || 3
|-
| 104 || MONSTER_COMBAT_XP_VALUE || 3
|-
| 105 || MONSTER_COMBAT_XP_VALUE || 3
|-
| 106 || MONSTER_COMBAT_XP_VALUE || 3
|-
| 107 || MONSTER_COMBAT_XP_VALUE || 3
|-
| 108 || MONSTER_COMBAT_XP_VALUE || 3
|-
| 109 || MONSTER_COMBAT_XP_VALUE || 3
|-
| 11 || MONSTER_COMBAT_XP_VALUE || 1
|-
| 110 || MONSTER_COMBAT_XP_VALUE || 3
|-
| 111 || MONSTER_COMBAT_XP_VALUE || 3
|-
| 112 || MONSTER_COMBAT_XP_VALUE || 3
|-
| 113 || MONSTER_COMBAT_XP_VALUE || 3
|-
| 114 || MONSTER_COMBAT_XP_VALUE || 3
|-
| 115 || MONSTER_COMBAT_XP_VALUE || 3
|-
| 116 || MONSTER_COMBAT_XP_VALUE || 3
|-
| 117 || MONSTER_COMBAT_XP_VALUE || 3
|-
| 118 || MONSTER_COMBAT_XP_VALUE || 3
|-
| 119 || MONSTER_COMBAT_XP_VALUE || 3
|-
| 12 || MONSTER_COMBAT_XP_VALUE || 2
|-
| 120 || MONSTER_COMBAT_XP_VALUE || 3
|-
| 121 || MONSTER_COMBAT_XP_VALUE || 3
|-
| 122 || MONSTER_COMBAT_XP_VALUE || 3
|-
| 123 || MONSTER_COMBAT_XP_VALUE || 3
|-
| 124 || MONSTER_COMBAT_XP_VALUE || 3
|-
| 125 || MONSTER_COMBAT_XP_VALUE || 3
|-
| 126 || MONSTER_COMBAT_XP_VALUE || 3
|-
| 127 || MONSTER_COMBAT_XP_VALUE || 3
|-
| 128 || MONSTER_COMBAT_XP_VALUE || 3
|-
| 129 || MONSTER_COMBAT_XP_VALUE || 3
|-
| 13 || MONSTER_COMBAT_XP_VALUE || 1
|-
| 130 || MONSTER_COMBAT_XP_VALUE || 3
|-
| 131 || MONSTER_COMBAT_XP_VALUE || 3
|-
| 132 || MONSTER_COMBAT_XP_VALUE || 3
|-
| 133 || MONSTER_COMBAT_XP_VALUE || 3
|-
| 134 || MONSTER_COMBAT_XP_VALUE || 3
|-
| 135 || MONSTER_COMBAT_XP_VALUE || 3
|-
| 136 || MONSTER_COMBAT_XP_VALUE || 3
|-
| 137 || MONSTER_COMBAT_XP_VALUE || 3
|-
| 138 || MONSTER_COMBAT_XP_VALUE || 3
|-
| 139 || MONSTER_COMBAT_XP_VALUE || 3
|-
| 14 || MONSTER_COMBAT_XP_VALUE || 2
|-
| 140 || MONSTER_COMBAT_XP_VALUE || 3
|-
| 141 || MONSTER_COMBAT_XP_VALUE || 3
|-
| 142 || MONSTER_COMBAT_XP_VALUE || 3
|-
| 143 || MONSTER_COMBAT_XP_VALUE || 3
|-
| 144 || MONSTER_COMBAT_XP_VALUE || 3
|-
| 145 || MONSTER_COMBAT_XP_VALUE || 3
|-
| 146 || MONSTER_COMBAT_XP_VALUE || 3
|-
| 147 || MONSTER_COMBAT_XP_VALUE || 3
|-
| 148 || MONSTER_COMBAT_XP_VALUE || 3
|-
| 149 || MONSTER_COMBAT_XP_VALUE || 3
|-
| 15 || MONSTER_COMBAT_XP_VALUE || 1
|-
| 150 || MONSTER_COMBAT_XP_VALUE || 3
|-
| 16 || MONSTER_COMBAT_XP_VALUE || 2
|-
| 17 || MONSTER_COMBAT_XP_VALUE || 1
|-
| 18 || MONSTER_COMBAT_XP_VALUE || 2
|-
| 19 || MONSTER_COMBAT_XP_VALUE || 1
|-
| 20 || MONSTER_COMBAT_XP_VALUE || 2
|-
| 21 || MONSTER_COMBAT_XP_VALUE || 1
|-
| 22 || MONSTER_COMBAT_XP_VALUE || 2
|-
| 23 || MONSTER_COMBAT_XP_VALUE || 1
|-
| 24 || MONSTER_COMBAT_XP_VALUE || 2
|-
| 25 || MONSTER_COMBAT_XP_VALUE || 1
|-
| 26 || MONSTER_COMBAT_XP_VALUE || 2
|-
| 27 || MONSTER_COMBAT_XP_VALUE || 1
|-
| 28 || MONSTER_COMBAT_XP_VALUE || 2
|-
| 29 || MONSTER_COMBAT_XP_VALUE || 1
|-
| 30 || MONSTER_COMBAT_XP_VALUE || 2
|-
| 31 || MONSTER_COMBAT_XP_VALUE || 2
|-
| 32 || MONSTER_COMBAT_XP_VALUE || 3
|-
| 33 || MONSTER_COMBAT_XP_VALUE || 2
|-
| 34 || MONSTER_COMBAT_XP_VALUE || 3
|-
| 35 || MONSTER_COMBAT_XP_VALUE || 2
|-
| 36 || MONSTER_COMBAT_XP_VALUE || 3
|-
| 37 || MONSTER_COMBAT_XP_VALUE || 2
|-
| 38 || MONSTER_COMBAT_XP_VALUE || 3
|-
| 39 || MONSTER_COMBAT_XP_VALUE || 2
|-
| 40 || MONSTER_COMBAT_XP_VALUE || 3
|-
| 41 || MONSTER_COMBAT_XP_VALUE || 3
|-
| 42 || MONSTER_COMBAT_XP_VALUE || 3
|-
| 43 || MONSTER_COMBAT_XP_VALUE || 3
|-
| 44 || MONSTER_COMBAT_XP_VALUE || 3
|-
| 45 || MONSTER_COMBAT_XP_VALUE || 3
|-
| 46 || MONSTER_COMBAT_XP_VALUE || 3
|-
| 47 || MONSTER_COMBAT_XP_VALUE || 3
|-
| 48 || MONSTER_COMBAT_XP_VALUE || 3
|-
| 49 || MONSTER_COMBAT_XP_VALUE || 3
|-
| 50 || MONSTER_COMBAT_XP_VALUE || 3
|-
| 51 || MONSTER_COMBAT_XP_VALUE || 3
|-
| 52 || MONSTER_COMBAT_XP_VALUE || 3
|-
| 53 || MONSTER_COMBAT_XP_VALUE || 3
|-
| 54 || MONSTER_COMBAT_XP_VALUE || 3
|-
| 55 || MONSTER_COMBAT_XP_VALUE || 3
|-
| 56 || MONSTER_COMBAT_XP_VALUE || 3
|-
| 57 || MONSTER_COMBAT_XP_VALUE || 3
|-
| 58 || MONSTER_COMBAT_XP_VALUE || 3
|-
| 59 || MONSTER_COMBAT_XP_VALUE || 3
|-
| 60 || MONSTER_COMBAT_XP_VALUE || 3
|-
| 61 || MONSTER_COMBAT_XP_VALUE || 3
|-
| 62 || MONSTER_COMBAT_XP_VALUE || 3
|-
| 63 || MONSTER_COMBAT_XP_VALUE || 3
|-
| 64 || MONSTER_COMBAT_XP_VALUE || 3
|-
| 65 || MONSTER_COMBAT_XP_VALUE || 3
|-
| 66 || MONSTER_COMBAT_XP_VALUE || 3
|-
| 67 || MONSTER_COMBAT_XP_VALUE || 3
|-
| 68 || MONSTER_COMBAT_XP_VALUE || 3
|-
| 69 || MONSTER_COMBAT_XP_VALUE || 3
|-
| 70 || MONSTER_COMBAT_XP_VALUE || 3
|-
| 71 || MONSTER_COMBAT_XP_VALUE || 3
|-
| 72 || MONSTER_COMBAT_XP_VALUE || 3
|-
| 73 || MONSTER_COMBAT_XP_VALUE || 3
|-
| 74 || MONSTER_COMBAT_XP_VALUE || 3
|-
| 75 || MONSTER_COMBAT_XP_VALUE || 3
|-
| 76 || MONSTER_COMBAT_XP_VALUE || 3
|-
| 77 || MONSTER_COMBAT_XP_VALUE || 3
|-
| 78 || MONSTER_COMBAT_XP_VALUE || 3
|-
| 79 || MONSTER_COMBAT_XP_VALUE || 3
|-
| 80 || MONSTER_COMBAT_XP_VALUE || 3
|-
| 81 || MONSTER_COMBAT_XP_VALUE || 3
|-
| 82 || MONSTER_COMBAT_XP_VALUE || 3
|-
| 83 || MONSTER_COMBAT_XP_VALUE || 3
|-
| 84 || MONSTER_COMBAT_XP_VALUE || 3
|-
| 85 || MONSTER_COMBAT_XP_VALUE || 3
|-
| 86 || MONSTER_COMBAT_XP_VALUE || 3
|-
| 87 || MONSTER_COMBAT_XP_VALUE || 3
|-
| 88 || MONSTER_COMBAT_XP_VALUE || 3
|-
| 89 || MONSTER_COMBAT_XP_VALUE || 3
|-
| 90 || MONSTER_COMBAT_XP_VALUE || 3
|-
| 91 || MONSTER_COMBAT_XP_VALUE || 3
|-
| 92 || MONSTER_COMBAT_XP_VALUE || 3
|-
| 93 || MONSTER_COMBAT_XP_VALUE || 3
|-
| 94 || MONSTER_COMBAT_XP_VALUE || 3
|-
| 95 || MONSTER_COMBAT_XP_VALUE || 3
|-
| 96 || MONSTER_COMBAT_XP_VALUE || 3
|-
| 97 || MONSTER_COMBAT_XP_VALUE || 3
|-
| 98 || MONSTER_COMBAT_XP_VALUE || 3
|-
| 99 || MONSTER_COMBAT_XP_VALUE || 3
|}
